{
  "consumer_key": "PKt8ZIUlXKQKebd1wtIjkRQvm",
  "consumer_secret": "FFQCRVl3F08Eh3Qxpm4xXLBjnbA5rFryprsp8E6OkoLmdwUHcL",
  "access_token_key": "894516512106479616-4Z0TISjXNFsOBwD12m54GRntQgyWSFA",
  "access_token_secret": "8bHhIMSKjr0H41fGaMMlgpaxA0FYaidB1WeJ3iy9XbKBq"
}
